20140926 11:58:44%% 156: #####################################################################
20140926 11:58:44%% 157:          CONSTRUCT PAYMENT PROCESSOR - AUTHORIZE
20140926 11:58:44%% 158: #####################################################################
20140926 11:58:44%% 160: API_KEY:7mXXXX9H68|API_TRANSACTION_KEY:2pXXXXr4M9
20140926 11:58:44%% 172: DefaultGateway:AUTHORIZE_CIM
20140926 11:58:44%% 225: TYPE: AuthorizeNetCIM
20140926 11:58:44%% 128: PaymentProcessorProfile::authorizeAndCapture
20140926 11:58:44%% 433: Amount Validation
20140926 11:58:44%% 436: Amount:10000
20140926 11:58:44%% 447: Set Amount:10000
20140926 11:58:44%% 105: Authorize.Net preparing request...
20140926 11:58:44%% 110: AuthorizeRequest:
20140926 11:58:44%% 111: post_url=https://apitest.authorize.net/xml/v1/request.api
20140926 11:58:44%% 112: RequestString=<?xml version="1.0" encoding="utf-8"?>
<createCustomerProfileTransactionRequest xmlns="AnetApi/xml/v1/schema/AnetApiSchema.xsd"><merchantAuthentication><name>7m6fNM9H68</name><transactionKey>2p25LeWY55x8r4M9</transactionKey></merchantAuthentication><transaction><profileTransAuthCapture><amount>10000</amount><lineItems><itemId>4</itemId><name>Cookies</name><description>Chocolate Chip</description><quantity>4</quantity><unitPrice>1.00</unitPrice><taxable>true</taxable></lineItems><customerProfileId>29158424</customerProfileId><customerPaymentProfileId>26474035</customerPaymentProfileId></profileTransAuthCapture></transaction><extraOptions><![CDATA[x_duplicate_window=1]]></extraOptions></createCustomerProfileTransactionRequest>

20140926 11:58:47%% 131: AuthorizeRequest:s:735:"<?xml version="1.0" encoding="utf-8"?>
<createCustomerProfileTransactionRequest xmlns="AnetApi/xml/v1/schema/AnetApiSchema.xsd"><merchantAuthentication><name>7m6fNM9H68</name><transactionKey>2p25LeWY55x8r4M9</transactionKey></merchantAuthentication><transaction><profileTransAuthCapture><amount>10000</amount><lineItems><itemId>4</itemId><name>Cookies</name><description>Chocolate Chip</description><quantity>4</quantity><unitPrice>1.00</unitPrice><taxable>true</taxable></lineItems><customerProfileId>29158424</customerProfileId><customerPaymentProfileId>26474035</customerPaymentProfileId></profileTransAuthCapture></transaction><extraOptions><![CDATA[x_duplicate_window=1]]></extraOptions></createCustomerProfileTransactionRequest>
";
20140926 11:58:47%% 133: AuthorizeResponse:s:656:"﻿<?xml version="1.0" encoding="utf-8"?><createCustomerProfileTransactionResponse xmlns:xsi="http://www.w3.org/2001/XMLSchema-instance" xmlns:xsd="http://www.w3.org/2001/XMLSchema" xmlns="AnetApi/xml/v1/schema/AnetApiSchema.xsd"><messages><resultCode>Ok</resultCode><message><code>I00001</code><text>Successful.</text></message></messages><directResponse>1,1,1,This transaction has been approved.,SHYZYP,Y,2221355025,,,10000.00,CC,auth_capture,_141139021558,,,,,,,,,,,nouman+payment_processors@nextgeni.com,,,,,,,,,,,,,,9F76F4FB7F1C4221892AF1853EA6CA75,,2,,,,,,,,,,,XXXX1881,Visa,,,,,,,,,,,,,,,,</directResponse></createCustomerProfileTransactionResponse>";
