2015-07-09 9:10:54 - INFO --> Currently On Zorder::OnlineIt Method For Updating Order status Order # 12 & Pay Id : go-12-1-4506
2015-07-09 9:10:54 - ERROR --> Order # 12 -> Check Order id, Pay Id & Money
2015-07-09 9:10:54 - ERROR --> Order # 12 -> Check Pass For Order id, Pay Id & Money
2015-07-09 9:10:54 - ERROR --> Order # 12 -> Fetch Order Data
2015-07-09 9:10:54 - ERROR --> Order # 12 -> Check Order Status is unpay (Order Statusunpay)
2015-07-09 9:10:54 - ERROR --> Order # 12 -> Set Order Status Pay
2015-07-09 9:10:54 - ERROR --> Order # 12 -> Check Order Status is pay (Order Statuspay)
2015-07-09 9:10:54 - ERROR --> Order # 12 -> Order Status is Pay Now Save Pay Table Data
2015-07-09 9:10:54 - ERROR --> Order # 12 -> Calling By One Method
2015-07-09 9:10:54 - INFO --> ZTeam::BuyOne Method Hit For 12 , Current Status of Order is pay & Service Use for Order is datatrans
2015-07-09 9:10:54 - ERROR --> BuyOne Method Hit For 12 -> Check bOnlyPostBuying Variable 
2015-07-09 9:10:54 - ERROR --> BuyOne Method Hit For 12 -> Call Tipping Method
2015-07-09 9:10:54 - ERROR --> BuyOne Method Hit For 12 -> Call ZFlow::CreateFromOrder Method
2015-07-09 9:10:54 - ERROR --> BuyOne Method Hit For 12 -> Call ZCoupon::CheckOrder Method
2015-07-09 9:10:54 - ERROR --> BuyOne Method Hit For 12 -> Call Invite::CheckInvite Method
2015-07-09 9:10:54 - ERROR --> BuyOne Method Hit For 12 -> Call ZCredit::Buy Method
2015-07-09 9:10:54 - ERROR --> BuyOne Method Hit For 12 -> Call orderCashBackItem Method
2015-07-09 9:10:54 - ERROR --> BuyOne Method Hit For 12 -> Send Success Order Email
